…
# chunk 2

``` r
diamonds %>% filter(color=='E')
```

    ## # A tibble: 9,797 × 10
    ##    carat cut       color clarity depth table price     x     y     z
    ##    <dbl> <ord>     <ord> <ord>   <dbl> <dbl> <int> <dbl> <dbl> <dbl>
    ##  1  0.23 Ideal     E     SI2      61.5    55   326  3.95  3.98  2.43
    ##  2  0.21 Premium   E     SI1      59.8    61   326  3.89  3.84  2.31
    ##  3  0.23 Good      E     VS1      56.9    65   327  4.05  4.07  2.31
    ##  4  0.22 Fair      E     VS2      65.1    61   337  3.87  3.78  2.49
    ##  5  0.2  Premium   E     SI2      60.2    62   345  3.79  3.75  2.27
    ##  6  0.32 Premium   E     I1       60.9    58   345  4.38  4.42  2.68
    ##  7  0.23 Very Good E     VS2      63.8    55   352  3.85  3.92  2.48
    ##  8  0.23 Very Good E     VS1      60.7    59   402  3.97  4.01  2.42
    ##  9  0.23 Very Good E     VS1      59.5    58   402  4.01  4.06  2.4 
    ## 10  0.23 Good      E     VS1      64.1    59   402  3.83  3.85  2.46
    ## # … with 9,787 more rows
